{
  "project_info": {
    "project_number": "1088928523254",
    "firebase_url": "https://fir-flutter-c877d.firebaseio.com",
    "project_id": "fir-flutter-c877d",
    "storage_bucket": "fir-flutter-c877d.appspot.com"
  },
  "client": [
    {
      "client_info": {
        "mobilesdk_app_id": "1:1088928523254:android:d8619153bcb14021",
        "android_client_info": {
          "package_name": "com.luisg.prueba_vale_room"
        }
      },
      "oauth_client": [
        {
          "client_id": "1088928523254-jfunjv1mjs609jsl34ds1kdcgnd6cks2.apps.googleusercontent.com",
          "client_type": 3
        }
      ],
      "api_key": [
        {
          "current_key": "AIzaSyAqI5W5q4BbbSNIsB8tONt_UbNLSICukBI"
        }
      ],
      "services": {
        "analytics_service": {
          "status": 1
        },
        "appinvite_service": {
          "status": 1,
          "other_platform_oauth_client": []
        },
        "ads_service": {
          "status": 2
        }
      }
    }
  ],
  "configuration_version": "1"
}